{
    "Countries": [
        {
            "name": "Afgan",
            "population": 5.7999999999999998,
            "latitude": 55,
            "Capital": {
                "name": "Kabul",
                "population": 2.3999999999999999
            }
        },
        {
            "name": "Iraq",
            "population": 1.8,
            "latitude": 46,
            "Capital": {
                "name": "Bagdad",
                "population": 1.3
            }
        },
        {
            "name": "Egypt",
            "population": 3.6000000000000001,
            "latitude": 33,
            "Capital": {
                "name": "Kair",
                "population": 0.5
            }
        },
        {
            "name": "Spain",
            "population": 7.0999999999999996,
            "latitude": 12,
            "Capital": {
                "name": "Milan",
                "population": 2.6000000000000001
            }
        },
        {
            "name": "Brazil",
            "population": 81.450000000000003,
            "latitude": -40,
            "Capital": {
                "name": "Rio",
                "population": 30.43
            }
        }
    ]
}